<?xml version="1.0" standalone="no"?>
<!DOCTYPE svg PUBLIC "-//W3C//DTD SVG 20010904//EN"
 "http://www.w3.org/TR/2001/REC-SVG-20010904/DTD/svg10.dtd">
<svg version="1.0" xmlns="http://www.w3.org/2000/svg"
 width="178.000000pt" height="89.000000pt" viewBox="0 0 178.000000 89.000000"
 preserveAspectRatio="xMidYMid meet">
<metadata>
</metadata>
<g transform="translate(0.000000,89.000000) scale(0.100000,-0.100000)"
fill="#000000" stroke="none">
<path d="M216 857 c-15 -19 -26 -45 -26 -59 0 -40 -21 -55 -95 -68 -38 -6 -75
-16 -82 -22 -16 -13 -17 -228 -2 -228 6 0 7 -5 4 -10 -4 -6 4 -74 16 -151 l22
-140 40 -35 c76 -65 191 -102 397 -130 145 -19 627 -19 780 0 259 33 426 106
444 193 16 78 66 408 66 438 0 52 -26 71 -114 86 -70 11 -77 14 -82 38 -13 57
-17 67 -42 94 l-26 27 -637 0 -638 0 -25 -33z"/>
</g>
</svg>
